Modeling File
…
# Tuning results
# 5-fold cross-validation 
# A tibble: 5 × 4
  splits                 id    .metrics           .notes          
  <list>                 <chr> <list>             <list>          
1 <split [142060/35516]> Fold1 <tibble [200 × 6]> <tibble [0 × 3]>
2 <split [142061/35515]> Fold2 <tibble [200 × 6]> <tibble [0 × 3]>
3 <split [142061/35515]> Fold3 <tibble [200 × 6]> <tibble [0 × 3]>
4 <split [142061/35515]> Fold4 <tibble [200 × 6]> <tibble [0 × 3]>
5 <split [142061/35515]> Fold5 <tibble [200 × 6]> <tibble [0 × 3]>

tree_fits |>
  collect_metrics()

# A tibble: 200 × 8
   cost_complexity tree_depth .metric     .estimator  mean     n std_err .config
             <dbl>      <int> <chr>       <chr>      <dbl> <int>   <dbl> <chr>  
 1    0.0000000001          1 accuracy    binary     0.861     5 9.36e-4 Prepro…
 2    0.0000000001          1 brier_class binary     0.120     5 6.76e-4 Prepro…
 3    0.0000000001          1 mn_log_loss binary     0.403     5 1.71e-3 Prepro…
 4    0.0000000001          1 roc_auc     binary     0.5       5 0       Prepro…
 5    0.000000001           1 accuracy    binary     0.861     5 9.36e-4 Prepro…
 6    0.000000001           1 brier_class binary     0.120     5 6.76e-4 Prepro…
 7    0.000000001           1 mn_log_loss binary     0.403     5 1.71e-3 Prepro…
 8    0.000000001           1 roc_auc     binary     0.5       5 0       Prepro…
 9    0.00000001            1 accuracy    binary     0.861     5 9.36e-4 Prepro…
10    0.00000001            1 brier_class binary     0.120     5 6.76e-4 Prepro…
# ℹ 190 more rows
…
tree_fits |>
  collect_metrics() |>
  filter(.metric == "mn_log_loss") |>
  arrange(mean)

# A tibble: 50 × 8
   cost_complexity tree_depth .metric     .estimator  mean     n std_err .config
             <dbl>      <int> <chr>       <chr>      <dbl> <int>   <dbl> <chr>  
 1    0.0000000001         11 mn_log_loss binary     0.389     5 0.00269 Prepro…
 2    0.000000001          11 mn_log_loss binary     0.389     5 0.00269 Prepro…
 3    0.00000001           11 mn_log_loss binary     0.389     5 0.00269 Prepro…
 4    0.0000001            11 mn_log_loss binary     0.389     5 0.00269 Prepro…
 5    0.000001             11 mn_log_loss binary     0.389     5 0.00269 Prepro…
 6    0.0000000001         15 mn_log_loss binary     0.389     5 0.00269 Prepro…
 7    0.000000001          15 mn_log_loss binary     0.389     5 0.00269 Prepro…
 8    0.00000001           15 mn_log_loss binary     0.389     5 0.00269 Prepro…
 9    0.0000001            15 mn_log_loss binary     0.389     5 0.00269 Prepro…
10    0.000001             15 mn_log_loss binary     0.389     5 0.00269 Prepro…
# ℹ 40 more rows
…
